5
2250
377
30687
30042
3533
100
24053
9499
11840
8710
10963
477
12748
22521
18722
23960
22901
938
28231
9497
11818
12327
19470
11024
28090
23476
16120
803
27694
32403
13329
10401
2365
11425
6691
12296
23706
7436
30834
10463
2242
19976
8288
8296
29125
20634
13182
10445
23277
12274
29981
23567
19900
1739
9001
24231
29841
24282
11701
11715
9342
7273
22371
11172
8549
27920
25432
2195
28975
8422
23265
18935
3863
13917
13120
26424
10692
15464
22371
28817
1834
28157
6309
4011
13373
21328
2865
25100
1418
30000
6938
13282
24481
12415
11923
10620
17349
15626
7798
6567
474
20130
25309
29795
4112
476
1000
17716
30269
10065
10528
24982
8590
13752
7787
12807
15029
21417
25316
29100
7881
26592
28898
6865
8533
31566
14965
20218
31007
2593
9345
5833
4506
26005
12376
27496
9961
24885
7116
9837
15532
1820
11702
31983
16280
31357
27012
3275
3915
32538
16924
15726
461
19495
31094
10416
15654
25866
2070
19674
18054
23527
27416
2941
16913
4818
13574
15764
21039
20040
12750
14038
32212
22731
29453
21715
14220
14899
32681
18630
18704
31760
349
25629
15751
17311
14127
6946
23145
18994
15806
29250
20533
3014
13767
14930
26176
19824
6933
4629
5620
6872
8559
17685
14270
17017
15013
12718
545
18577
6673
17148
30882
29160
21665
27902
31158
17390
30713
14284
26140
13695
16032
15303
10885
5350
8202
17079
523
1578
15552
3498
23925
14107
3609
30083
11814
26965
6364
12711
20171
9392
31657
9366
9016
42
20826
20185
18720
19781
2889
16644
6034
4365
2639
22218
23244
24875
29041
20837
5612
28853
18255
27870
32464
6129
23307
31276
23796
8203
31978
29125
1560
29272
32058
32374
10990
15372
27936
3956
30135
2928
9238
29744
19270
858
3967
32007
19284
278
7930
14643
18411
2128
18773
30650
28388
13761
28141
3249
290
16834
27083
7302
12424
19747
18432
25980
26569
3793
10105
17005
11673
3639
9071
2920
89
28720
27196
17152
1516
6174
24979
28052
13470
14860
17546
30372
26427
22415
11121
5974
3587
18346
25472
23513
25901
32461
541
2484
11611
18078
23873
17033
8494
32758
14338
27866
13124
15880
27403
6154
8262
25501
27502
354
28288
12525
6105
32605
765
7439
10907
9980
24268
558
9001
6516
19879
18341
17204
12471
19541
17111
15106
30571
18088
30670
18715
19747
11764
20689
9881
20707
11150
22108
19772
12333
16126
30969
26448
27553
31510
21382
412
27963
20855
13049
10965
20662
3925
10083
11476
25356
11123
28598
8047
27493
13897
24136
5613
22493
16447
20064
18542
17050
25
9675
31063
21504
13194
20739
10839
29734
8241
3204
22257
9913
20980
28570
28516
23731
18059
12817
27909
7029
11996
26948
20948
27661
15554
30800
18458
9364
14487
21843
26325
25798
22939
14516
3515
31455
24660
16660
16133
29590
4318
29601
6976
15246
29923
11490
5309
7271
17525
428
13810
12669
32476
24679
11628
6933
14788
4244
22251
3995
18356
18075
11063
21320
2492
13239
5712
3430
11466
21276
6801
28158
22597
7214
15361
14202
16956
21769
27451
18436
7594
6189
20610
22100
1262
11843
441
14878
14371
15887
6374
22264
16037
5159
12213
12218
10201
10666
4565
16872
11014
2930
1427
11943
16743
27952
4465
30748
17114
10510
11388
28443
29306
5786
15431
13155
20339
854
3495
27722
10969
8294
2625
20708
32708
22224
31526
14939
31037
30799
28979
14964
2368
3038
22591
18313
31173
24539
9056
23757
25923
7012
12637
25886
21169
16521
24187
32664
20505
4429
11088
30913
10745
13474
13175
25088
6835
6082
24616
20894
16946
30800
14673
8915
22276
18833
22012
10694
22031
14535
22645
19687
20131
4622
29473
10878
19278
4614
18334
8057
23707
20349
1673
14001
14619
4686
26741
15828
24758
29154
6816
1723
19849
27158
26372
2846
28205
7136
1734
17101
8516
9677
28414
7367
32723
5070
22744
9734
20613
19308
190
6390
26852
28605
19654
23662
5650
23836
24069
3439
17730
8326
1792
23166
5973
456
384
4390
20783
26127
17464
3222
13911
3578
6371
371
9328
22589
27602
2310
23784
3910
13350
1391
2611
10432
7070
7620
24289
13832
28205
1439
3416
9095
598
24733
20739
14321
18141
15113
7325
26851
9771
5031
6483
12860
4997
6778
2092
26141
27069
28705
14782
3780
6251
21921
18475
20889
10143
13811
16335
13349
7676
22677
6
767
29744
25389
22058
24635
7968
31972
13672
29884
5834
2817
3518
2785
10965
16578
20572
26454
9510
16123
4764
13296
844
25743
5074
9031
2440
22818
2915
18904
3607
29004
7050
7212
8175
26592
11379
25501
31349
9132
13607
8055
18037
6864
9708
6219
19014
6574
4351
11214
22137
29672
6498
22078
6670
338
26594
32743
18896
17502
7539
26090
6758
19360
19744
21214
26429
27423
14209
18731
11284
24733
20181
17717
14946
11167
31693
21104
4861
20694
15457
29417
31434
2393
16585
31644
1396
12408
15925
24531
23883
5016
6125
25562
21680
16532
30724
25576
27207
15405
22912
32752
18483
5030
26074
43
2242
24699
4153
10098
9332
17950
8622
5096
5817
15203
26402
6729
13941
20861
9270
24236
25796
14710
12438
25877
21122
26282
27731
26941
18868
1171
9007
23782
2115
29108
12771
27753
29294
27043
4608
13901
10050
31678
20292
616
30547
19958
19307
3088
20681
16758
18019
24063
30370
27205
10010
20175
24997
30589
23040
6357
29851
5392
22319
25223
20293
16
10225
25220
22375
29726
32639
15178
5342
12287
23859
29261
13246
13404
23845
11742
31114
11911
12417
22668
28757
9908
28495
30528
2520
2454
365
28150
22741
14134
22823
16623
27243
30702
28563
16182
17628
3995
6330
6245
12930
17070
13104
31838
27163
26550
686
14370
16353
23664
28100
16340
10874
25316
24807
29831
31070
5159
2107
23786
23049
3674
25047
18131
9549
11105
2249
13503
4887
23294
8610
4233
14208
6456
18638
25071
12279
8565
14251
31609
30601
12254
6325
8626
15630
30628
22041
2703
23230
25243
13501
5521
24818
14607
12076
11979
13959
14126
23532
24152
26976
28474
3798
32199
32757
5322
16090
17330
25667
3512
12891
28227
17113
25177
18186
24122
10135
6701
7404
32298
31278
28252
15418
18897
17740
16406
14954
9346
11600
28951
32741
4158
3171
25547
5575
18194
4906
27578
105
12955
5487
937
4105
110
19654
23494
1870
14029
4696
22384
21538
19717
19010
18848
10930
3690
10668
643
22984
10839
21722
12796
5166
29467
19159
3682
1376
9969
25054
17518
10334
426
30957
26940
10452
13069
16926
5826
7915
32594
31195
14305
6801
32010
16254
25035
12997
31720
19025
6866
7943
32588
24677
31639
20398
31136
19187
5065
25303
29249
13949
11418
18598
14342
15526
2118
18687
21545
488
1504
9115
21830
973
16845
13773
13652
7062
18051
19132
30065
6877
29545
11782
28485
4925
22883
26228
25691
27264
6837
23621
3367
4558
21940
9620
15050
16311
12225
20138
30390
7003
5
2250
377
30687
30042
3533
0
