3506
19211
31789
11368
1036
13874
3779
20874
21221
18080
15474
5199
24899
5045
24479
19889
24224
24765
13695
11080
6297
30068
18387
2913
11497
11551
23520
1290
2395
24026
15874
276
26680
18386
23909
7872
1500
27595
29233
31805
6460
28785
19209
22004
9232
14434
19890
1561
24223
17512
17343
26857
18561
8524
12954
21861
1857
27857
19749
19681
32050
1089
25727
3715
29253
14959
817
8049
24488
11101
31451
23303
14847
9136
1323
29635
14860
32069
30703
5719
25515
11920
7629
13891
3359
7911
3499
4256
9145
19348
2641
25051
2460
2882
7483
15845
12293
7165
10170
25340
16155
2549
19476
22857
20626
18586
10505
16360
22751
12754
967
14346
17272
4091
18749
28091
5775
15350
15825
4366
24220
23499
10595
16653
17929
5729
27961
28188
32459
17872
32033
1138
32017
1602
3490
8790
32052
29438
16331
24514
29915
22217
21274
24435
5524
15750
21342
18507
26756
16778
25551
25146
20698
16915
30320
15540
25788
30584
27379
8452
8991
29956
30198
9725
3173
26980
16176
8860
16226
22665
4770
30127
22919
20202
31167
330
16090
24391
20749
15364
19559
1197
10120
30394
24875
27518
22674
27412
29731
21687
28637
14586
17964
1509
32751
20763
24974
22564
9903
15959
23744
17710
392
17650
31709
6444
16231
6548
19225
25540
4647
21763
22198
19215
32188
19029
13249
29939
1288
27029
25277
32492
29455
25150
24919
19130
3491
2032
22025
4777
8304
17502
31869
32441
25810
21839
21521
21131
12425
29529
5064
21119
16485
13404
12760
29980
4321
10461
31531
17479
20817
11473
30079
2797
1201
12044
17961
15477
12486
16890
12898
27934
32408
24759
19901
20290
31603
30831
23711
22442
24096
4399
15460
2008
6243
14585
1320
16602
23766
5157
7667
22129
6577
17191
24460
27555
16192
14907
32069
17558
30872
23484
10943
5982
7632
24138
22041
13465
18878
3706
28360
9498
22997
25954
8032
4076
29413
20943
2821
7595
28325
10395
22753
20252
29792
25725
21068
14469
18776
12435
13248
15612
17997
5831
26972
13668
17203
18775
9968
353
18128
10976
31363
14279
27784
27735
24299
18302
23619
25157
14691
12236
4418
4327
12757
22446
3276
22888
18109
22768
13700
11001
215
10960
32203
13093
25712
3248
13384
2391
17627
13039
7430
12108
13649
3794
10469
27867
18313
13244
13267
30921
24930
5844
25880
14317
12470
9213
23738
20490
18139
5145
1614
32458
4577
30379
22912
3132
28264
1420
14035
31207
16168
2752
20215
27813
19776
12991
7900
32141
13941
18665
29951
21236
20369
26070
20619
28617
12400
13452
30223
31918
3627
13564
10347
5433
2901
10280
2484
3484
6795
13686
29533
31888
31090
24779
15780
32099
7932
27600
14243
12739
6127
20628
20090
16530
18747
28290
8905
28159
9573
9581
18984
6292
17724
29575
11582
18400
17443
24712
14295
2561
21040
2504
10831
13484
11235
26279
29622
20699
28012
2999
17660
13526
29582
2470
2184
15275
25783
26934
31643
10516
582
18585
25204
24292
331
9073
27796
7550
29641
11583
12626
6550
25244
31101
5163
9373
32529
20664
4954
3837
7558
21998
1442
29990
15179
25602
19561
7007
13329
28855
1305
15812
16495
23302
27781
17723
25938
9147
27317
10882
21217
26671
1066
632
10901
10484
24102
17633
17836
23135
19633
7728
28325
12661
31532
4806
17752
10367
12004
4187
708
21055
11493
3302
3680
19259
9905
26349
31323
27818
10662
28557
5611
7898
9201
20754
6054
18909
22421
5253
24535
17631
5519
31728
30038
5462
25748
23086
12373
22704
6413
16423
18042
5614
26899
24962
20805
7133
1217
7324
22303
24190
21926
4777
15225
11285
16167
19043
18911
23529
8186
5471
18064
15019
23760
4396
25063
13324
5195
30606
14427
2300
6567
13268
10789
9349
20664
25397
17778
19479
13259
25669
31316
17892
7270
9535
26475
22296
8164
22159
32162
6248
27837
2607
18801
7170
29755
28679
23668
623
31668
3209
11441
19398
20596
7289
634
14271
7551
12148
4547
16552
25484
32288
26710
9045
16554
30295
24366
22460
3751
641
29161
12431
14675
4391
10105
32223
17631
4059
4051
8375
2342
24310
5567
18108
30016
31499
9651
8955
4388
4429
30892
9104
20791
6019
13033
29338
6730
30195
11427
13782
12105
8693
25415
688
31371
31637
9467
3106
8681
19012
30103
8215
25204
17930
22581
15219
6460
26477
24449
7327
14108
17543
31927
21171
31352
28403
9608
9861
26840
18744
8072
16791
24738
16570
10453
28173
13040
21609
27221
10604
31598
31277
21821
18403
15619
11290
8010
26990
21978
6614
28172
5487
11320
7588
7950
27462
23941
452
9183
15739
29491
18818
30600
13678
29980
6578
12384
10207
16030
3868
2189
3236
26553
18423
13232
29505
13568
6552
29108
2289
10911
25828
17381
6512
3219
16744
9432
2423
8119
12735
7052
4283
5368
21262
23825
16544
29432
11844
1145
22901
14727
31151
31541
27512
9259
13910
27120
9202
2641
29874
21076
8062
4722
5618
29578
29251
11842
30875
12875
27340
7184
28
24838
29926
10903
15186
15030
17057
32696
8571
9436
27218
14105
840
2356
28450
14059
38
20587
9842
14990
30695
3845
6379
9763
20594
9494
113
5612
19693
27368
22208
31555
2460
27400
25863
13630
1935
20624
20064
12945
3078
25943
15027
26843
17177
7962
5583
22674
25191
6052
12667
11133
9147
607
25585
2216
31610
4121
23301
23419
26871
14216
23695
13022
13055
10633
31699
27593
778
6400
283
11570
13021
1802
14626
191
8988
6467
8724
22639
25208
28544
23944
12294
505
16872
5674
12114
14627
24062
2447
14810
11069
23949
30418
28772
26748
21078
3263
21472
15987
9372
15977
1646
20581
12417
29503
27082
24164
10077
32568
25136
32420
18408
2371
18415
18757
3355
27885
28261
26814
15598
27174
9225
22680
992
6233
9952
17253
14272
10426
25487
23554
16857
18536
9793
4530
21976
24202
29399
13709
26986
13272
17640
4633
25849
11839
13860
472
7143
4533
5217
31550
16983
24778
2836
142
10822
27945
19878
2645
24612
31770
5403
22433
14918
28842
25848
30664
31998
8659
10736
21272
25761
7901
44
25204
23042
25015
22968
30438
32445
15681
360
30141
20641
4670
12337
90
10813
14866
169
28270
8646
23003
17040
6164
21991
14623
17045
23561
4924
20610
18079
6058
15915
6529
29395
4338
2704
13175
28834
22669
7178
4797
16603
213
23092
13108
11485
4124
12618
6575
15951
21362
25387
11757
23735
653
32647
12154
29478
21094
11651
31039
8292
3265
30047
18454
21771
547
30272
26855
12926
82
17064
21119
9632
19262
28167
10641
1917
16739
28936
19311
5112
13804
11761
24920
26596
18553
32760
11582
19607
26615
4719
24938
11348
16448
18431
13946
17661
28738
10805
10364
26756
20328
25851
12041
6032
4779
6431
24901
32444
3696
23724
15096
2446
26163
17625
13751
8727
7059
2207
9065
28151
12042
27099
23332
21701
31160
24679
5637
11309
27507
30009
31144
15288
14280
13355
8034
27320
2888
14376
24841
21492
21895
9834
31317
209
21928
8613
32266
21222
2797
32169
27549
14521
9494
26944
6652
3060
17803
21265
9069
1286
26111
24798
6884
12106
21620
19514
2794
16729
24967
705
20116
27371
29885
25806
19347
17972
16721
15375
15252
12580
14696
26597
6769
31056
109
6119
31413
8535
4579
25326
8227
28638
3264
8658
25739
5181
24940
169
24496
22456
31774
15838
16980
22501
6053
847
28588
4728
12973
11135
17361
24808
16754
11754
5544
26336
14443
9713
12638
11751
11635
4380
21650
31056
4478
30572
22784
11976
27185
24335
21499
10958
29946
24828
24359
13632
8381
30836
15287
4197
32749
20379
125
11278
1911
6521
2934
4259
27816
18728
4972
8736
1977
4604
15877
27765
10732
27998
17714
27153
11570
19211
32197
16122
14551
22187
7053
25629
14698
31020
18138
10498
17307
851
32176
18895
24355
32082
17873
18948
26970
6448
11922
1884
26992
24462
4035
28054
9741
15216
30258
29539
7351
14942
980
23227
13631
24070
25803
21734
31018
25131
12388
30358
10216
9053
17090
20257
1259
7169
4526
23388
9605
27972
14965
25199
9437
19549
5417
28643
20282
10830
6015
9987
26115
23557
25752
21908
30051
19794
29654
31856
18919
2124
19675
28643
24636
14665
3117
26479
19213
32408
15150
24736
10884
29012
20307
3405
28706
32622
7164
19474
28014
4576
11227
19292
8052
10792
17000
25403
23182
18194
29743
22484
9736
3547
24096
14104
17020
30956
26371
695
18045
29824
11813
4255
22499
10205
16820
13374
4193
3162
32701
3387
10372
29528
19222
15512
8102
118
19728
30232
9576
26942
4563
19947
13878
12507
2839
10669
17683
4696
30209
27713
14449
1364
3486
16510
10157
22968
21652
16565
14424
21544
10298
2890
12909
15443
10089
24621
22036
26222
32440
26979
3485
32486
19995
30515
20515
16551
21285
10392
9476
26130
16620
29680
15797
20756
32585
9593
26556
31953
1711
2780
32146
6622
26515
2669
15047
27776
18797
6956
28027
16904
20497
18232
18133
21565
31996
17746
8513
26520
16110
1547
17335
23473
462
6966
3068
23939
19718
31767
21524
10679
21095
28820
17488
25722
6050
7087
3266
11420
22556
16302
14537
7932
14681
15783
9236
19788
17874
32178
23790
3924
21806
32326
23239
23961
2458
2569
5540
31229
3101
18767
25065
16000
24024
20788
18275
25053
3658
11377
28313
15826
21835
27203
1327
21398
17920
19956
24904
24907
5662
13148
30799
19071
23992
31461
24529
7349
20382
11901
13294
21559
1892
16271
19299
4010
30866
16484
30969
9934
19955
16955
24456
6089
17708
26850
30868
19146
17964
31341
13696
31953
1728
20801
3125
470
14387
10283
16944
31911
23852
31697
25656
9108
20915
26332
930
2904
19699
1374
5958
5048
20585
22526
26624
6381
490
15170
2338
7710
21028
17919
27123
28468
23043
31612
12419
3938
10031
12549
16944
3130
24441
11903
13650
6887
26108
6758
11080
3599
8900
11428
17962
5646
3959
28032
2013
18160
22893
13962
8769
29155
29395
12016
10614
7387
28341
24343
28086
21699
23472
4617
13436
14818
22173
7481
15534
27591
23284
28327
8468
26981
32143
18022
31828
10865
5513
28850
19764
12323
19227
3945
18460
18640
28630
28159
372
3643
23829
6594
14769
9956
17490
30542
13604
25465
17439
32013
3224
24012
9419
11720
16922
20124
3299
17456
23284
24475
26999
4675
31891
14799
21046
26723
32045
6783
12623
30863
32496
22375
11777
22348
27401
17625
13107
31946
29179
13005
16322
1723
7814
6478
32728
21247
32022
16339
20252
17516
19572
27479
22752
4469
22252
18570
30733
11386
5498
3692
1083
17620
24390
10144
12496
10381
27970
12569
31628
15212
25682
25741
9348
3160
26046
14971
29110
29806
30902
31865
10277
17203
24971
8427
14266
17708
32487
362
1103
7191
21219
30209
31744
26881
29180
23282
213
22659
3315
12370
233
277
5230
32158
12142
25029
23849
19851
6758
21787
30934
18004
14759
3706
30713
9194
4465
11982
30058
9630
18973
29549
10155
31909
28818
15789
20722
27910
15504
10290
3595
2625
26050
23720
8376
9923
32732
28286
8209
16894
12937
30585
16853
4446
21534
8656
7398
31789
4432
23713
27297
12490
15724
3780
9082
8350
8738
30316
23716
21321
32118
25267
30779
6747
25369
79
27026
28824
19602
8836
2234
32546
9896
26582
20798
29492
23652
26731
27675
27717
15122
13614
7984
4119
29268
27262
8631
12032
24638
6285
26628
27912
12429
728
19829
16702
21341
8401
5746
20234
9679
15600
29099
19070
7357
24952
13413
28949
22123
18860
28071
3214
16265
21032
23813
5878
12280
32214
5116
9835
16521
5721
16062
15207
10246
10073
31853
26905
30568
23635
3779
17093
8338
29717
4414
1262
13946
17306
18535
1991
20552
13144
4684
19171
15105
22258
21675
21705
27814
8918
6417
20518
9707
28233
4219
4056
25438
20669
11418
24436
22664
2353
1449
11917
12464
2856
3302
1588
25085
19178
1758
23144
584
20627
1666
27189
29025
14348
8960
27243
19887
21336
30328
27996
24630
995
26312
29527
27802
3024
2113
1325
2024
4262
4526
21622
8547
8001
8997
2238
3182
18130
4756
28852
14887
25172
14535
20168
21766
15570
6913
25940
29228
20876
16241
10774
2848
6347
24703
15617
8730
32551
29534
13255
25740
22909
14491
32068
12995
24686
24326
16039
23613
23921
25096
32456
1591
14903
7459
30435
19182
20624
21499
11436
23124
30776
9545
29355
24209
16092
27321
9788
15169
10463
20896
25254
13009
22647
28233
4554
5741
3541
17863
6816
4730
7406
880
18478
30867
36
15852
113
8807
22720
14193
30049
25412
17219
1938
4014
4209
8756
14706
1957
1777
29393
32019
1727
383
14788
32290
2998
32266
21088
13849
18210
13938
11097
32540
8683
27382
16405
20762
15102
4634
9022
24583
27846
23154
966
21016
14829
6345
19099
8735
18864
30344
4462
28024
25621
8019
13003
16017
9232
19598
12564
22020
18905
28452
23279
5146
28352
8253
10033
8142
17831
32746
25601
5163
18051
31732
26330
31272
29323
12176
18581
15345
31032
19708
23744
19928
13737
8449
29995
1146
27375
32592
23917
21478
14132
26431
2319
30925
30387
28294
23655
11219
19842
7209
24780
32532
13845
21251
8023
12743
15063
9255
3586
9575
14696
2567
22905
13798
6990
18564
29430
2312
1987
13154
7800
25879
20165
8308
21539
19531
21191
2119
812
21513
9329
7552
28328
3962
5115
30534
11006
12718
13597
14349
3059
12707
19611
4332
9344
3720
12480
9583
9533
76
14536
24527
4881
32362
31783
5597
3386
5253
26263
31824
6314
26591
7704
24007
26851
18804
5115
19277
20192
27791
13961
5006
3239
13480
16732
3138
28678
22064
3887
29476
25648
11709
25667
10401
8021
11175
32662
1358
29554
20302
7274
10542
5929
3427
3807
28078
24887
31173
7711
15617
6843
8843
29915
3784
7110
26751
10977
18708
26638
7134
10407
4693
10111
12550
14700
32314
13191
26845
14375
5586
4622
1395
18184
4184
14938
10623
23121
460
7587
27259
19773
26467
19537
4026
9282
31179
2460
25532
26200
11219
23270
15913
30558
25203
30218
15597
2957
25348
20144
10564
12507
10842
31532
6676
10508
30263
15307
15341
496
18047
19519
16131
2910
30618
10755
23282
31195
17393
10161
28814
9284
31382
16183
22565
2329
20572
20835
28534
17453
28513
19128
6147
29325
16227
14657
23737
11352
32562
22773
26336
873
27618
25377
14032
14547
22589
8120
4666
15992
23714
9810
30433
15315
10644
22289
23560
12225
13123
30173
12851
18610
22158
5849
4933
7610
21585
19322
18625
1191
32687
18103
21578
29042
30780
21061
13903
11727
30252
24584
19210
585
7323
7957
8234
19536
11145
13102
10800
23706
17405
12372
4196
12341
31991
22540
13938
31927
21166
10683
24729
3939
21154
14415
20681
21923
30360
2001
27382
30497
7879
23151
19341
7757
29511
26553
9378
10784
6944
24288
18515
20831
29502
4330
11880
25604
27769
10539
824
32724
19301
25603
9574
23448
27117
25290
24691
20548
15619
8648
24496
10185
9212
1162
15904
12212
21120
2690
7613
27825
4749
30013
480
18290
11125
12447
19793
10458
3462
255
6067
29727
11178
12066
2155
13125
5748
22572
20799
1450
31564
20377
25117
24446
28813
14672
23605
18300
9281
25404
3511
1918
30012
16048
6133
4422
8417
12211
16632
25435
28586
3143
3931
15508
19423
12748
20137
14749
5478
31929
23567
29234
14619
18504
6994
20541
4641
15101
30095
3475
25446
20129
16521
25804
3441
6634
21055
16672
12284
26417
18629
127
15267
31944
27624
1212
1960
20060
10985
26050
25643
25855
11231
28669
20234
14562
11475
28842
21510
23299
13149
9174
16524
16928
30552
29056
11274
18660
32720
26104
8526
2375
18994
17707
5795
22597
12693
12202
25109
28468
20058
8503
13103
26496
16180
11629
1930
4811
25350
11207
19755
24965
27952
29182
6720
32397
3481
25066
24256
10787
27412
28882
4595
2120
28002
18215
2365
7693
29903
20046
30160
17263
22919
13053
2366
16
22980
25955
23199
200
29005
9523
28671
1316
32405
617
30318
15943
14911
998
8900
31688
6133
25871
27413
23978
32243
3086
3561
25617
13949
23803
30205
17198
5667
26036
10718
14586
13146
23399
22502
16874
4302
28947
14023
32005
3399
17378
25393
24374
25912
21491
1905
6311
1051
4781
17320
27269
31160
16406
9474
17690
20342
31974
6650
32617
31964
744
25923
19357
26006
26887
19664
6468
21586
23120
21071
18060
19857
27370
14551
20219
30336
737
7408
774
15718
11371
19634
25712
2731
31627
8566
32177
8967
12030
14204
15321
9688
3579
30908
12342
16912
20918
1902
27060
26178
8351
23073
16152
26033
26774
2308
30564
19406
23166
13284
17407
14430
22826
2233
24474
13539
21133
17666
3826
13741
5917
30649
11471
28573
14896
21370
5025
26383
7666
302
9261
15298
31163
2847
10346
19062
5254
32025
3249
20377
27701
12578
28499
23717
31083
7508
13071
12251
1846
29279
27847
5503
21494
18110
1416
22649
11503
11748
30648
23985
17813
25188
9809
10749
9321
27470
32419
5560
5266
16087
21610
32655
7036
31924
12283
13284
21296
6912
14789
16299
5310
30449
2508
17123
21192
1216
32426
28987
30787
5178
6563
18206
4383
17961
23995
22012
14989
12290
25618
5122
14307
14963
26473
21574
23901
5807
28206
3838
31764
17142
20656
29530
11887
11105
4531
8339
6374
17794
26244
6354
10565
31871
3000
30872
19069
29850
14317
18707
4870
9511
17624
30147
834
4170
9882
31096
23711
2826
25636
3565
26296
18410
23965
5744
9705
29561
12621
14579
722
18483
8715
11732
31148
13377
9939
10157
1627
23643
25148
31876
22939
22862
9902
8127
18368
11598
27425
27106
31265
14879
31682
15977
2151
20512
5433
32194
27694
28445
30749
22234
9887
13097
22196
26319
24011
21133
12070
27219
11653
31983
13810
14472
10204
31051
23766
7198
13314
1615
16856
28987
28853
11898
30676
10931
2254
19525
520
1042
18433
25907
5772
24801
31389
25655
23173
23558
8619
4355
29713
4151
4100
8418
24461
13435
8664
9697
23691
23118
18329
18545
32173
7232
13987
2955
1119
1837
15963
18870
493
30058
15579
28216
22231
20219
18855
2481
25422
8429
16072
17834
13491
370
32219
25043
28620
23298
31297
18800
31328
25883
30727
15120
13912
27842
21923
27002
18800
6028
29727
21414
14286
17727
16491
16849
224
10698
18733
23616
636
15890
6937
6526
10630
17518
15803
28463
1080
12321
30564
1100
21266
391
21193
10354
22314
3350
21094
21453
23465
24749
2740
28805
27530
27878
8611
21966
19206
32584
21447
16685
3089
24839
10431
6635
18760
11630
13818
14727
3366
19996
16233
12976
18322
32298
10180
24353
31508
25935
10089
28993
32675
19798
19621
29702
23056
31489
7112
29395
11005
2131
4602
25670
20970
5175
10040
32418
23366
23593
14878
5773
7368
8518
6657
22669
17560
30395
5431
20398
21471
2846
25022
8141
32207
16507
1127
4786
2717
28587
29648
26655
26035
38
31082
15871
19834
6337
20202
3257
19623
5473
16225
10165
32564
23462
3015
17739
28849
1818
20471
27444
22985
18927
7960
25741
8656
6798
5626
617
15806
5168
546
12958
18741
23710
2407
28567
16085
8679
24639
28834
8934
14737
6296
19057
19385
29739
27247
12873
1581
1234
32109
3413
21000
6430
3736
18713
8924
23087
25523
979
11383
28488
4101
28367
30785
6305
6538
23808
11113
8492
25127
11602
26461
15198
10060
1753
11929
25664
10993
20163
27828
14332
2171
22202
1342
17075
9827
18087
1261
3739
6312
23535
10711
31404
19876
23598
2965
25714
31697
29337
12169
19565
8768
12101
943
28822
15273
26294
24114
13665
12781
16027
14510
13214
25544
24563
24086
6225
10
13809
26355
28637
14751
8472
21491
12130
24109
25292
32287
16092
31258
21850
16902
16912
22292
7606
20511
20390
13763
17836
22908
6167
17207
31426
29077
6009
16784
24460
4556
5345
23870
11080
7805
24721
25796
10736
20333
16036
15770
26231
12250
17417
20550
24082
12561
31091
8010
15286
13684
4278
17249
6668
8754
5319
17557
14071
9226
11878
20855
1733
2079
20929
31022
27220
18920
16183
25070
21925
28488
26641
28692
29099
10088
12339
6432
3466
25445
2214
30539
32037
3278
24480
8146
6787
9178
18211
19538
15278
20816
29184
26485
15548
27945
15465
18955
9657
16976
10036
27359
29868
31987
14951
24262
22045
4827
2489
23996
26815
5250
28270
9790
29054
17766
19736
30935
28838
17280
5608
17348
3214
16548
28166
29982
17339
18016
23398
3060
25126
14661
2475
28720
29484
22886
15566
32562
19991
28894
7212
13310
10337
5209
3406
11957
7877
19460
8438
3109
32352
29179
16894
4494
1694
6851
2624
9695
1080
9234
11447
9867
31459
890
19566
30993
27153
1731
28704
22059
15152
25017
28508
8338
25544
28945
19147
23898
28587
28860
19589
26849
18655
24734
20407
1218
1380
4544
25825
3177
17
30758
2298
23140
31041
21297
28994
21106
21276
22620
12615
25435
11346
31852
17480
21498
23413
26400
8524
2177
30250
16339
17596
19409
1959
31953
13840
1081
18977
19708
16479
17604
12690
2476
7138
18943
6638
26011
9850
19982
31717
9799
10336
20302
17026
1511
2402
9039
19346
25557
20677
25631
15767
5700
28683
2537
12132
23593
3134
21831
25897
9649
6326
29288
7267
22138
4765
7560
30953
14841
12043
2877
26681
30894
2970
20415
10814
31648
31770
14111
25793
17130
14029
27356
8423
9252
24837
15679
9079
27269
32284
25157
19531
29035
22088
7732
10007
3333
31884
29894
29941
5042
8284
9205
26723
26671
31595
14133
12681
20055
19219
24600
28158
32209
16301
4072
27611
31879
8618
23421
31925
29160
29728
1185
31985
28286
6601
5513
533
18776
21693
30096
27150
26837
2464
8184
23847
17736
5676
23519
14280
15868
6028
338
13132
815
11114
21171
28296
23776
374
30908
14097
29238
24798
16980
20236
18826
9020
17469
9071
25144
29125
15581
29181
7809
21360
6659
17982
4406
5791
19768
14365
12203
6227
12351
4231
8088
22290
348
28366
17091
19683
29417
21106
22929
23411
25313
22729
3167
19724
27200
9729
4536
